data_wrangling
…
Depending on which package you are loading, you might get such a warning message, that “so and so” function is being “masked” from another one. Basically, any additional packages you load may have one or more functions with the same names(s) as existing function(s) (which will typically do something completely different) in base R’s packages. This creates name conflicts. Therefore, R will prevent you from using the new function(s) that you have enabled by using the same name of an pre-existing function. It gives priority to the pre-existing one. So, for example, if you call just filter(), the command that will be used is the one from stats, and not the one from dplyr. In this scenario, you can use the new function by using the double colon notation :: like so: dplyr::filter().

Note

The :: notation is like the dot notation in Python — it allows you to access a particular function (like a Python module) from a package. So you can also use the command at the end of the :: (try just as_tibble(MyWrangledData), for example), but it’s just safer to use the :: because then you can rest assured that you are actually using the function you intended to.

More of :: usage coming up below!

OK, let’s try data exploration in tidyverse.

First, let’s convert the dataframe to a “tibble”:

tibble::as_tibble(MyWrangledData) 

# A tibble: 2,419 × 6
   Cultivation Block Plot  Quadrat Species              Count
   <fct>       <fct> <fct> <fct>   <fct>                <int>
 1 october     a     1     Q1      Achillea millefolium     4
 2 october     a     1     Q2      Achillea millefolium     8
 3 october     a     1     Q3      Achillea millefolium     3
 4 october     a     1     Q4      Achillea millefolium    20
 5 october     a     1     Q5      Achillea millefolium     6
 6 may         a     2     Q1      Achillea millefolium     4
 7 may         a     2     Q2      Achillea millefolium     0
 8 may         a     2     Q3      Achillea millefolium     0
 9 may         a     2     Q4      Achillea millefolium     0
10 may         a     2     Q5      Achillea millefolium     0
# … with 2,409 more rows
…
